<?xml version="1.0" encoding="UTF-8" standalone="no"?>
<!-- Created with Inkscape (http://www.inkscape.org/) -->

<svg
   width="85.073807mm"
   height="75.810974mm"
   viewBox="0 0 85.073805 75.810976"
   version="1.1"
   id="svg5"
   sodipodi:docname="example-cliques-4-def.svg"
   inkscape:version="1.2.1 (1:1.2.1+202210291244+9c6d41e410)"
   xml:space="preserve"
   xmlns:inkscape="http://www.inkscape.org/namespaces/inkscape"
   xmlns:sodipodi="http://sodipodi.sourceforge.net/DTD/sodipodi-0.dtd"
   xmlns="http://www.w3.org/2000/svg"
   xmlns:svg="http://www.w3.org/2000/svg"><sodipodi:namedview
     id="namedview7"
     pagecolor="#ffffff"
     bordercolor="#666666"
     borderopacity="1.0"
     inkscape:showpageshadow="2"
     inkscape:pageopacity="0.0"
     inkscape:pagecheckerboard="0"
     inkscape:deskcolor="#d1d1d1"
     inkscape:document-units="mm"
     showgrid="false"
     inkscape:zoom="1.1036342"
     inkscape:cx="189.37435"
     inkscape:cy="209.30849"
     inkscape:window-width="924"
     inkscape:window-height="1043"
     inkscape:window-x="2916"
     inkscape:window-y="0"
     inkscape:window-maximized="0"
     inkscape:current-layer="layer1" /><defs
     id="defs2"><rect
       x="275.14157"
       y="427.01379"
       width="26.012314"
       height="23.497025"
       id="rect5976" /><rect
       x="275.14157"
       y="427.01379"
       width="26.012314"
       height="23.497025"
       id="rect5976-5" /><rect
       x="275.14157"
       y="427.01379"
       width="26.012314"
       height="23.497025"
       id="rect5976-9" /><rect
       x="275.14157"
       y="427.01379"
       width="26.012314"
       height="23.497025"
       id="rect5976-0" /><rect
       x="275.14157"
       y="427.01379"
       width="26.012314"
       height="23.497025"
       id="rect5976-0-6" /><rect
       x="275.14157"
       y="427.01379"
       width="26.012314"
       height="23.497025"
       id="rect5976-0-2" /></defs><g
     inkscape:label="Layer 1"
     inkscape:groupmode="layer"
     id="layer1"
     transform="translate(-10.449203,-28.803979)"><path
       style="fill:none;stroke:#303030;stroke-width:0.551;stroke-linecap:round;stroke-linejoin:miter;stroke-miterlimit:1;stroke-dasharray:1.102, 3.306;stroke-dashoffset:0;stroke-opacity:1"
       d="M 70.259505,36.791066 35.712715,96.627867"
       id="path1665-62-3-6"
       sodipodi:nodetypes="cc" /><path
       style="fill:none;stroke:#303030;stroke-width:0.550794;stroke-linecap:butt;stroke-linejoin:miter;stroke-miterlimit:1;stroke-opacity:1"
       d="M 21.950661,-5.957339 -7.060742,18.014551"
       id="path1665-62-7"
       sodipodi:nodetypes="cc" /><path
       style="fill:none;stroke:#303030;stroke-width:0.550794;stroke-linecap:butt;stroke-linejoin:miter;stroke-miterlimit:1;stroke-opacity:1"
       d="M 37.546551,-6.465901 8.535148,17.505989"
       id="path1665-62-8"
       sodipodi:nodetypes="cc" /><path
       style="fill:none;stroke:#303030;stroke-width:0.550794;stroke-linecap:butt;stroke-linejoin:miter;stroke-miterlimit:1;stroke-opacity:1"
       d="M 46.36162,-6.465901 17.350217,17.505989"
       id="path1665-62-4"
       sodipodi:nodetypes="cc" /><path
       style="fill:none;stroke:#303030;stroke-width:0.550794;stroke-linecap:butt;stroke-linejoin:miter;stroke-miterlimit:1;stroke-opacity:1"
       d="M 53.651003,-6.12686 24.6396,17.84503"
       id="path1665-62-5"
       sodipodi:nodetypes="cc" /><path
       style="fill:none;stroke:#303030;stroke-width:0.550794;stroke-linecap:round;stroke-linejoin:miter;stroke-miterlimit:1;stroke-opacity:1;stroke-dasharray:1.10158801, 3.30476403;stroke-dashoffset:0"
       d="m 87.532901,66.709466 -69.093586,0"
       id="path1665-62-0"
       sodipodi:nodetypes="cc" /><path
       style="fill:none;stroke:#303030;stroke-width:0.551;stroke-linecap:round;stroke-linejoin:miter;stroke-miterlimit:1;stroke-opacity:1;stroke-dasharray:1.102,3.30599999;stroke-dashoffset:0"
       d="m 35.712712,36.791066 51.820189,29.9184"
       id="path1665-62-3"
       sodipodi:nodetypes="cc" /><path
       style="fill:none;stroke:#303030;stroke-width:0.551;stroke-linecap:round;stroke-linejoin:miter;stroke-miterlimit:1;stroke-dasharray:1.102, 3.306;stroke-dashoffset:0;stroke-opacity:1"
       d="m 18.439315,66.709466 17.2734,29.918401"
       id="path1665-62-3-4"
       sodipodi:nodetypes="cc" /><path
       style="fill:none;stroke:#303030;stroke-width:0.551;stroke-linecap:round;stroke-linejoin:miter;stroke-miterlimit:1;stroke-dasharray:1.102, 3.306;stroke-dashoffset:0;stroke-opacity:1"
       d="m 35.745085,41.815727 -0.03237,54.81214"
       id="path1665-62-3-7"
       sodipodi:nodetypes="cc" /><path
       style="fill:none;stroke:#303030;stroke-width:0.550794;stroke-linecap:butt;stroke-linejoin:miter;stroke-miterlimit:1;stroke-opacity:1"
       d="M 70.259505,96.627867 87.532901,66.709466"
       id="path1665-62-6"
       sodipodi:nodetypes="cc" /><path
       style="fill:none;stroke:#303030;stroke-width:0.550794;stroke-linecap:butt;stroke-linejoin:miter;stroke-miterlimit:1;stroke-opacity:1"
       d="M 87.532901,66.709466 35.712715,96.627867"
       id="path1665-62-1"
       sodipodi:nodetypes="cc" /><path
       style="fill:none;stroke:#303030;stroke-width:0.550794;stroke-linecap:butt;stroke-linejoin:miter;stroke-miterlimit:1;stroke-opacity:1"
       d="m 70.259505,36.791066 -51.82019,29.9184"
       id="path1665-62-06"
       sodipodi:nodetypes="cc" /><path
       style="fill:none;stroke:#303030;stroke-width:0.550794;stroke-linecap:butt;stroke-linejoin:miter;stroke-miterlimit:1;stroke-opacity:1"
       d="m 35.712712,36.791066 -17.273397,29.9184"
       id="path1665-62-32"
       sodipodi:nodetypes="cc" /><path
       style="fill:none;stroke:#303030;stroke-width:0.550794;stroke-linecap:butt;stroke-linejoin:miter;stroke-miterlimit:1;stroke-opacity:1"
       d="M 70.259505,36.791066 H 35.712712"
       id="path1665-62-061"
       sodipodi:nodetypes="cc" /><path
       style="fill:none;stroke:#303030;stroke-width:0.550794;stroke-linecap:butt;stroke-linejoin:miter;stroke-miterlimit:1;stroke-opacity:1"
       d="M 87.532901,66.709466 70.259505,36.791066"
       id="path1665-62-55"
       sodipodi:nodetypes="cc" /><g
       id="g18450"><g
         id="g6148"
         transform="translate(-8.9476933,-80.996674)"><path
           style="fill:#ffffff;fill-opacity:1;stroke:#666663;stroke-width:0.550794;stroke-linecap:butt;stroke-linejoin:miter;stroke-miterlimit:1;stroke-opacity:1"
           d="m 86.921916,117.78777 c 0,-4.2608 -3.45092,-7.71172 -7.711694,-7.71172 -4.266817,0 -7.717742,3.45092 -7.717742,7.71172 0,4.26073 3.450925,7.71166 7.717742,7.71166 4.260774,0 7.711694,-3.45093 7.711694,-7.71166"
           id="path1619" /><text
           xml:space="preserve"
           transform="matrix(0.58985378,0,0,0.58985378,-90.7253,-139.85943)"
           id="text5974"
           style="font-size:22.6667px;line-height:1;font-family:Ubuntu;-inkscape-font-specification:Ubuntu;text-align:center;letter-spacing:0px;word-spacing:0px;white-space:pre;shape-inside:url(#rect5976);display:inline"
           x="3.1280046"
           y="0"><tspan
             x="281.75546"
             y="445.31686"
             id="tspan19410">1</tspan></text></g><g
         id="g6143"
         transform="translate(-76.170848,-81.025714)"><path
           style="fill:#ffffff;fill-opacity:1;stroke:#666663;stroke-width:0.550794;stroke-linecap:butt;stroke-linejoin:miter;stroke-miterlimit:1;stroke-opacity:1"
           d="m 119.59828,117.81681 c 0,-4.2608 -3.45092,-7.71172 -7.71169,-7.71172 -4.26682,0 -7.71775,3.45092 -7.71775,7.71172 0,4.26073 3.45093,7.71166 7.71775,7.71166 4.26077,0 7.71169,-3.45093 7.71169,-7.71166"
           id="path1619-6" /><text
           xml:space="preserve"
           transform="matrix(0.58985378,0,0,0.58985378,-58.048936,-139.83039)"
           id="text5974-2"
           style="font-size:22.6667px;line-height:1;font-family:Ubuntu;-inkscape-font-specification:Ubuntu;text-align:center;letter-spacing:0px;word-spacing:0px;white-space:pre;shape-inside:url(#rect5976-5);display:inline"
           x="3.1280046"
           y="0"><tspan
             x="281.75546"
             y="445.31686"
             id="tspan19412">2</tspan></text></g><g
         id="g6138"
         transform="translate(-128.02644,-52.463484)"><path
           style="fill:#ffffff;fill-opacity:1;stroke:#666663;stroke-width:0.550794;stroke-linecap:butt;stroke-linejoin:miter;stroke-miterlimit:1;stroke-opacity:1"
           d="m 154.18047,119.17298 c 0,-4.2608 -3.45092,-7.71172 -7.71169,-7.71172 -4.26682,0 -7.71774,3.45092 -7.71774,7.71172 0,4.26073 3.45092,7.71166 7.71774,7.71166 4.26077,0 7.71169,-3.45093 7.71169,-7.71166"
           id="path1619-1" /><text
           xml:space="preserve"
           transform="matrix(0.58985378,0,0,0.58985378,-23.466744,-138.47422)"
           id="text5974-27"
           style="font-size:22.6667px;line-height:1;font-family:Ubuntu;-inkscape-font-specification:Ubuntu;text-align:center;letter-spacing:0px;word-spacing:0px;white-space:pre;shape-inside:url(#rect5976-9);display:inline"
           x="3.1280046"
           y="0"><tspan
             x="281.75546"
             y="445.31686"
             id="tspan19414">3</tspan></text></g><g
         id="g6133"
         transform="translate(-101.63433,-25.257403)"><path
           style="fill:#ffffff;fill-opacity:1;stroke:#666663;stroke-width:0.550794;stroke-linecap:butt;stroke-linejoin:miter;stroke-miterlimit:1;stroke-opacity:1"
           d="m 179.60855,121.8853 c 0,-4.2608 -3.45092,-7.71172 -7.71169,-7.71172 -4.26682,0 -7.71774,3.45092 -7.71774,7.71172 0,4.26073 3.45092,7.71166 7.71774,7.71166 4.26077,0 7.71169,-3.45093 7.71169,-7.71166"
           id="path1619-9" /><text
           xml:space="preserve"
           transform="matrix(0.58985378,0,0,0.58985378,1.961338,-135.7619)"
           id="text5974-3"
           style="font-size:22.6667px;line-height:1;font-family:Ubuntu;-inkscape-font-specification:Ubuntu;text-align:center;letter-spacing:0px;word-spacing:0px;white-space:pre;shape-inside:url(#rect5976-0);display:inline"
           x="3.1280046"
           y="0"><tspan
             x="281.75546"
             y="445.31686"
             id="tspan19416">5</tspan></text></g><g
         id="g6133-3"
         transform="translate(-84.360934,-55.175804)"><path
           style="fill:#ffffff;fill-opacity:1;stroke:#666663;stroke-width:0.550794;stroke-linecap:butt;stroke-linejoin:miter;stroke-miterlimit:1;stroke-opacity:1"
           d="m 179.60855,121.8853 c 0,-4.2608 -3.45092,-7.71172 -7.71169,-7.71172 -4.26682,0 -7.71774,3.45092 -7.71774,7.71172 0,4.26073 3.45092,7.71166 7.71774,7.71166 4.26077,0 7.71169,-3.45093 7.71169,-7.71166"
           id="path1619-9-7" /><text
           xml:space="preserve"
           transform="matrix(0.58985378,0,0,0.58985378,1.961338,-135.7619)"
           id="text5974-3-5"
           style="font-size:22.6667px;line-height:1;font-family:Ubuntu;-inkscape-font-specification:Ubuntu;text-align:center;letter-spacing:0px;word-spacing:0px;white-space:pre;shape-inside:url(#rect5976-0-2);display:inline"
           x="3.1280046"
           y="0"><tspan
             x="281.75546"
             y="445.31686"
             id="tspan19418">6</tspan></text></g><g
         id="g6133-1"
         transform="translate(-136.18112,-25.257403)"><path
           style="fill:#ffffff;fill-opacity:1;stroke:#666663;stroke-width:0.550794;stroke-linecap:butt;stroke-linejoin:miter;stroke-miterlimit:1;stroke-opacity:1"
           d="m 179.60855,121.8853 c 0,-4.2608 -3.45092,-7.71172 -7.71169,-7.71172 -4.26682,0 -7.71774,3.45092 -7.71774,7.71172 0,4.26073 3.45092,7.71166 7.71774,7.71166 4.26077,0 7.71169,-3.45093 7.71169,-7.71166"
           id="path1619-9-8" /><text
           xml:space="preserve"
           transform="matrix(0.58985378,0,0,0.58985378,1.961338,-135.7619)"
           id="text5974-3-7"
           style="font-size:22.6667px;line-height:1;font-family:Ubuntu;-inkscape-font-specification:Ubuntu;text-align:center;letter-spacing:0px;word-spacing:0px;white-space:pre;shape-inside:url(#rect5976-0-6);display:inline"
           x="3.1280046"
           y="0"><tspan
             x="281.75546"
             y="445.31686"
             id="tspan19420">4</tspan></text></g></g></g></svg>
