<?xml version="1.0" encoding="UTF-8" standalone="no"?>
<!-- Created with Inkscape (http://www.inkscape.org/) -->

<svg
   width="102.26327mm"
   height="35.99387mm"
   viewBox="0 0 102.26327 35.99387"
   version="1.1"
   id="svg5"
   sodipodi:docname="example-motzkin-2.svg"
   inkscape:version="1.2.1 (1:1.2.1+202210291244+9c6d41e410)"
   xml:space="preserve"
   xmlns:inkscape="http://www.inkscape.org/namespaces/inkscape"
   xmlns:sodipodi="http://sodipodi.sourceforge.net/DTD/sodipodi-0.dtd"
   xmlns="http://www.w3.org/2000/svg"
   xmlns:svg="http://www.w3.org/2000/svg"><sodipodi:namedview
     id="namedview7"
     pagecolor="#ffffff"
     bordercolor="#666666"
     borderopacity="1.0"
     inkscape:showpageshadow="2"
     inkscape:pageopacity="0.0"
     inkscape:pagecheckerboard="0"
     inkscape:deskcolor="#d1d1d1"
     inkscape:document-units="mm"
     showgrid="false"
     inkscape:zoom="1.1036342"
     inkscape:cx="91.515833"
     inkscape:cy="143.16338"
     inkscape:window-width="1848"
     inkscape:window-height="1043"
     inkscape:window-x="1992"
     inkscape:window-y="0"
     inkscape:window-maximized="1"
     inkscape:current-layer="layer1" /><defs
     id="defs2"><rect
       x="275.14157"
       y="427.01379"
       width="26.012314"
       height="23.497025"
       id="rect5976" /><rect
       x="275.14157"
       y="427.01379"
       width="26.012314"
       height="23.497025"
       id="rect5976-5" /><rect
       x="275.14157"
       y="427.01379"
       width="26.012314"
       height="23.497025"
       id="rect5976-9" /><rect
       x="275.14157"
       y="427.01379"
       width="26.012314"
       height="23.497025"
       id="rect5976-0" /></defs><g
     inkscape:label="Layer 1"
     inkscape:groupmode="layer"
     id="layer1"
     transform="translate(-54.182439,-97.908743)"><path
       style="fill:none;stroke:#303030;stroke-width:0.550794;stroke-linecap:butt;stroke-linejoin:miter;stroke-miterlimit:1;stroke-opacity:1"
       d="m 99.11286,106.11986 c -8.900822,7.95744 -25.010092,10.32723 -33.324193,17.78683"
       id="path1665"
       sodipodi:nodetypes="cc" /><path
       style="fill:none;stroke:#303030;stroke-width:0.550794;stroke-linecap:butt;stroke-linejoin:miter;stroke-miterlimit:1;stroke-opacity:1"
       d="m 102.57502,107.50489 c 8.16492,5.75967 30.29513,8.1911 41.37073,11.57071"
       id="path1665-0"
       sodipodi:nodetypes="cc" /><g
       id="g6148"
       transform="translate(-17.034644,8.1277839)"><path
         style="fill:#ffffff;fill-opacity:1;stroke:#666663;stroke-width:0.550794;stroke-linecap:butt;stroke-linejoin:miter;stroke-miterlimit:1;stroke-opacity:1"
         d="m 86.921916,117.78777 c 0,-4.2608 -3.45092,-7.71172 -7.711694,-7.71172 -4.266817,0 -7.717742,3.45092 -7.717742,7.71172 0,4.26073 3.450925,7.71166 7.717742,7.71166 4.260774,0 7.711694,-3.45093 7.711694,-7.71166"
         id="path1619" /><text
         xml:space="preserve"
         transform="matrix(0.58985378,0,0,0.58985378,-90.7253,-139.85943)"
         id="text5974"
         style="font-size:22.6667px;line-height:1;font-family:Ubuntu;-inkscape-font-specification:Ubuntu;text-align:center;letter-spacing:0px;word-spacing:0px;white-space:pre;shape-inside:url(#rect5976);display:inline"
         x="3.1280046"
         y="0"><tspan
           x="281.75546"
           y="445.31686"
           id="tspan8109">1</tspan></text></g><g
       id="g6143"
       transform="translate(-12.657314,-11.92095)"><path
         style="fill:#ffffff;fill-opacity:1;stroke:#666663;stroke-width:0.550794;stroke-linecap:butt;stroke-linejoin:miter;stroke-miterlimit:1;stroke-opacity:1"
         d="m 119.59828,117.81681 c 0,-4.2608 -3.45092,-7.71172 -7.71169,-7.71172 -4.26682,0 -7.71775,3.45092 -7.71775,7.71172 0,4.26073 3.45093,7.71166 7.71775,7.71166 4.26077,0 7.71169,-3.45093 7.71169,-7.71166"
         id="path1619-6" /><text
         xml:space="preserve"
         transform="matrix(0.58985378,0,0,0.58985378,-58.048936,-139.83039)"
         id="text5974-2"
         style="font-size:22.6667px;line-height:1;font-family:Ubuntu;-inkscape-font-specification:Ubuntu;text-align:center;letter-spacing:0px;word-spacing:0px;white-space:pre;shape-inside:url(#rect5976-5);display:inline"
         x="3.1280046"
         y="0"><tspan
           x="281.75546"
           y="445.31686"
           id="tspan8111">2</tspan></text></g><g
       id="g6138"
       transform="translate(1.9898393,1.0161734)"><path
         style="fill:#ffffff;fill-opacity:1;stroke:#666663;stroke-width:0.550794;stroke-linecap:butt;stroke-linejoin:miter;stroke-miterlimit:1;stroke-opacity:1"
         d="m 154.18047,119.17298 c 0,-4.2608 -3.45092,-7.71172 -7.71169,-7.71172 -4.26682,0 -7.71774,3.45092 -7.71774,7.71172 0,4.26073 3.45092,7.71166 7.71774,7.71166 4.26077,0 7.71169,-3.45093 7.71169,-7.71166"
         id="path1619-1" /><text
         xml:space="preserve"
         transform="matrix(0.58985378,0,0,0.58985378,-23.466744,-138.47422)"
         id="text5974-27"
         style="font-size:22.6667px;line-height:1;font-family:Ubuntu;-inkscape-font-specification:Ubuntu;text-align:center;letter-spacing:0px;word-spacing:0px;white-space:pre;shape-inside:url(#rect5976-9);display:inline"
         x="3.1280046"
         y="0"><tspan
           x="281.75546"
           y="445.31686"
           id="tspan8113">3</tspan></text></g></g></svg>
